1,Bhaktapur
2,Dhading
3,Kathmandu
4,Kavrepalanchok
5,Lalitpur
6,Nuwakot
7,Rasuwa
8,Sindhupalchok
9,Banke
10,Bardiya
11,Dailekh
12,Jajarkot
13,Surkhet
14,Baglung
15,Mustang
16,Myagdi
17,Parbat
18,Gorkha
19,Kaski
20,Lamjung
21,Manang
22,Syangja
23,Tanahu
24,Dhanusa
25,Dolakha
26,Mahottari
27,Ramechhap
28,Sarlahi
29,Sindhuli
30,Dolpa
31,Humla
32,Jumla
33,Kalikot
34,Mugu
35,Bhojpur
36,Dhankuta
37,Morang
38,Sankhuwasabha
39,Sunsari
40,Terhathum
41,Arghakhanchi
42,Gulmi
43,Kapilvastu
44,Nawalparasi
45,Palpa
46,Rupandehi
47,Baitadi
48,Dadeldhura
49,Darchula
50,Kanchanpur
51,Ilam
52,Jhapa
53,Panchthar
54,Taplejung
55,Bara
56,Chitwan
57,Makwanpur
58,Parsa
59,Rautahat
60,Dang Deukhuri
61,Pyuthan
62,Rolpa
63,Rukum
64,Salyan
65,Khotang
66,Okhaldhunga
67,Saptari
68,Siraha
69,Solukhumbu
70,Udayapur
71,Achham
72,Bajhang
73,Bajura
74,Doti
75,Kailali
